{"data":[{"id":2357772,"eventType":"position_lost","signature":"5WazMC1AYaq2YjRFG4HVyfJ1RAD54mShDrB8Z8C6Kqemv9Sqp9RM9q1FNB6E2oyaU3Bn4m9YyqZf2CR6EgBjEHtL","slot":"430946105","timestamp":1783253268,"orderPubkey":"","positionPubkey":"8Qcmr6Gxdq63dpJqePbgAe3upv75XH2FCPngwxK9r3nb","marketId":"POLY-2794564-0","ownerPubkey":"GKa5bz8UVsMz5d4HygNDnQF7HNxDhxCzQTB1FsZ2ZHF","keeperPubkey":"8jhWXEL7xbfVhmmTUsJVfKn7o74jDy3uPARPA9TjsZd2","externalOrderId":"","orderId":"","isBuy":false,"isYes":true,"contracts":"0","contractsMicro":"0","contractsDecimal":"0","filledContracts":"0","filledContractsMicro":"0","filledContractsDecimal":"0","contractsSettled":"26","contractsSettledMicro":"26230000","contractsSettledDecimal":"26.23","maxFillPriceUsd":"0","avgFillPriceUsd":"0","maxBuyPriceUsd":null,"minSellPriceUsd":null,"depositAmountUsd":"0","totalCostUsd":"0","feeUsd":null,"grossProceedsUsd":"0","netProceedsUsd":"0","transferAmountToken":null,"realizedPnl":"-4718193","realizedPnlBeforeFees":"-4718193","payoutAmountUsd":"0","eventId":"POLY-665914","marketMetadata":{"marketId":"POLY-2794564-0","eventId":"POLY-665914","title":"Up","subtitle":"Up","description":"Up","status":"no","result":"no","closeTime":1783252500,"openTime":1783166277,"isTeamMarket":true,"sportsMarketType":null,"marketOptions":[{"label":"Up","buyYes":true}]},"eventMetadata":{"eventId":"POLY-665914","title":"Bitcoin Up or Down - July 5, 7:50AM-7:55AM ET","subtitle":"","imageUrl":"https://polymarket-upload.s3.us-east-2.amazonaws.com/BTC+fullsize.png","isLive":false,"tags":["crypto","5m"],"closeTime":1783252500,"beginAt":"1783252200","category":"crypto","subcategory":"btc"}},{"id":2357771,"eventType":"position_lost","signature":"5BSEpVw9zjM92SYuAfASfLqB3zKV9ibZaDV9CW4Ew4cUuMuvPQkmjUtbdd8pTZKdofksjz8CfHbvEDs5nbWC7TWK","slot":"430946104","timestamp":1783253268,"orderPubkey":"","positionPubkey":"2Uj6Heb1tiQha8QJyap2GA9x7dPhK9x682P8AtnLKoyc","marketId":"POLY-2794544-0","ownerPubkey":"GKa5bz8UVsMz5d4HygNDnQF7HNxDhxCzQTB1FsZ2ZHF","keeperPubkey":"8jhWXEL7xbfVhmmTUsJVfKn7o74jDy3uPARPA9TjsZd2","externalOrderId":"","orderId":"","isBuy":false,"isYes":true,"contracts":"0","contractsMicro":"0","contractsDecimal":"0","filledContracts":"0","filledContractsMicro":"0","filledContractsDecimal":"0","contractsSettled":"55","contractsSettledMicro":"55370000","contractsSettledDecimal":"55.37","maxFillPriceUsd":"0","avgFillPriceUsd":"0","maxBuyPriceUsd":null,"minSellPriceUsd":null,"depositAmountUsd":"0","totalCostUsd":"0","feeUsd":null,"grossProceedsUsd":"0","netProceedsUsd":"0","transferAmountToken":null,"realizedPnl":"-4714890","realizedPnlBeforeFees":"-4714890","payoutAmountUsd":"0","eventId":"POLY-665895","marketMetadata":{"marketId":"POLY-2794544-0","eventId":"POLY-665895","title":"Up","subtitle":"Up","description":"Up","status":"no","result":"no","closeTime":1783252200,"openTime":1783166019,"isTeamMarket":true,"sportsMarketType":null,"marketOptions":[{"label":"Up","buyYes":true}]},"eventMetadata":{"eventId":"POLY-665895","title":"Bitcoin Up or Down - July 5, 7:45AM-7:50AM ET","subtitle":"","imageUrl":"https://polymarket-upload.s3.us-east-2.amazonaws.com/BTC+fullsize.png","isLive":false,"tags":["crypto","5m"],"closeTime":1783252200,"beginAt":"1783251900","category":"crypto","subcategory":"btc"}},{"id":2357651,"eventType":"payout_claimed","signature":"ey2c5jFkub6iJbje19K1jidhevuTu4ehJNUmWMnko3qV9fC58abmR48Vex2B8sHv9R6nJBYGzJTVDi8gfSudXFb","slot":"430944715","timestamp":1783252704,"orderPubkey":"","positionPubkey":"D6xaAj8xXkuffpRH8y8paDGmHCSTTZKhLP8fBVvLDNhd","marketId":"POLY-2794544-1","ownerPubkey":"GKa5bz8UVsMz5d4HygNDnQF7HNxDhxCzQTB1FsZ2ZHF","keeperPubkey":"GKa5bz8UVsMz5d4HygNDnQF7HNxDhxCzQTB1FsZ2ZHF","externalOrderId":"","orderId":"","isBuy":false,"isYes":true,"contracts":"0","contractsMicro":"0","contractsDecimal":"0","filledContracts":"0","filledContractsMicro":"0","filledContractsDecimal":"0","contractsSettled":"19","contractsSettledMicro":"19470000","contractsSettledDecimal":"19.47","maxFillPriceUsd":"0","avgFillPriceUsd":"0","maxBuyPriceUsd":null,"minSellPriceUsd":null,"depositAmountUsd":"0","totalCostUsd":"0","feeUsd":null,"grossProceedsUsd":"0","netProceedsUsd":"0","transferAmountToken":"19470000","realizedPnl":"14991920","realizedPnlBeforeFees":"14991920","payoutAmountUsd":"19470000","eventId":"POLY-665895","marketMetadata":{"marketId":"POLY-2794544-1","eventId":"POLY-665895","title":"Down","subtitle":"Down","description":"Down","status":"yes","result":"yes","closeTime":1783252200,"openTime":1783166019,"isTeamMarket":true,"sportsMarketType":null,"marketOptions":[{"label":"Down","buyYes":true}]},"eventMetadata":{"eventId":"POLY-665895","title":"Bitcoin Up or Down - July 5, 7:45AM-7:50AM ET","subtitle":"","imageUrl":"https://polymarket-upload.s3.us-east-2.amazonaws.com/BTC+fullsize.png","isLive":false,"tags":["crypto","5m"],"closeTime":1783252200,"beginAt":"1783251900","category":"crypto","subcategory":"btc"}},{"id":2357650,"eventType":"payout_claimed","signature":"3qzxQDZDdPsQ7DLzvPf6UVnT2M7Kg5EmRcSuc4CKM7VrWPxaPD9Fhzny7PAxQVw3rPeNr8Yw9NBcP64TexJj3Cxw","slot":"430944704","timestamp":1783252699,"orderPubkey":"","positionPubkey":"2Dnx7aQXfRK9xPVwczoMXkYHVLBtcJtB5Lst9FpFAXdi","marketId":"POLY-2794536-1","ownerPubkey":"GKa5bz8UVsMz5d4HygNDnQF7HNxDhxCzQTB1FsZ2ZHF","keeperPubkey":"GKa5bz8UVsMz5d4HygNDnQF7HNxDhxCzQTB1FsZ2ZHF","externalOrderId":"","orderId":"","isBuy":false,"isYes":true,"contracts":"0","contractsMicro":"0","contractsDecimal":"0","filledContracts":"0","filledContractsMicro":"0","filledContractsDecimal":"0","contractsSettled":"8","contractsSettledMicro":"8390000","contractsSettledDecimal":"8.39","maxFillPriceUsd":"0","avgFillPriceUsd":"0","maxBuyPriceUsd":null,"minSellPriceUsd":null,"depositAmountUsd":"0","totalCostUsd":"0","feeUsd":null,"grossProceedsUsd":"0","netProceedsUsd":"0","transferAmountToken":"8390000","realizedPnl":"4278900","realizedPnlBeforeFees":"4278900","payoutAmountUsd":"8390000","eventId":"POLY-665890","marketMetadata":{"marketId":"POLY-2794536-1","eventId":"POLY-665890","title":"Down","subtitle":"Down","description":"Down","status":"yes","result":"yes","closeTime":1783251900,"openTime":1783165781,"isTeamMarket":true,"sportsMarketType":null,"marketOptions":[{"label":"Down","buyYes":true}]},"eventMetadata":{"eventId":"POLY-665890","title":"Bitcoin Up or Down - July 5, 7:40AM-7:45AM ET","subtitle":"","imageUrl":"https://polymarket-upload.s3.us-east-2.amazonaws.com/BTC+fullsize.png","isLive":false,"tags":["crypto","5m"],"closeTime":1783251900,"beginAt":"1783251600","category":"crypto","subcategory":"btc"}},{"id":2357621,"eventType":"position_lost","signature":"7V88NchwdQQ8tBjGdRJcy8At6DRkw1SdTSCWPhMPfGTfGBS4SAbXJQiZfhyigaMsbiF8v1hakf5sBHaxcmToDbS","slot":"430944396","timestamp":1783252577,"orderPubkey":"","positionPubkey":"3FkHR75aBdT8vLt943WKSjeebpv79tPfW73EYPGzkx4g","marketId":"POLY-2794536-0","ownerPubkey":"GKa5bz8UVsMz5d4HygNDnQF7HNxDhxCzQTB1FsZ2ZHF","keeperPubkey":"8jhWXEL7xbfVhmmTUsJVfKn7o74jDy3uPARPA9TjsZd2","externalOrderId":"","orderId":"","isBuy":false,"isYes":true,"contracts":"0","contractsMicro":"0","contractsDecimal":"0","filledContracts":"0","filledContractsMicro":"0","filledContractsDecimal":"0","contractsSettled":"15","contractsSettledMicro":"15080000","contractsSettledDecimal":"15.08","maxFillPriceUsd":"0","avgFillPriceUsd":"0","maxBuyPriceUsd":null,"minSellPriceUsd":null,"depositAmountUsd":"0","totalCostUsd":"0","feeUsd":null,"grossProceedsUsd":"0","netProceedsUsd":"0","transferAmountToken":null,"realizedPnl":"-4674800","realizedPnlBeforeFees":"-4674800","payoutAmountUsd":"0","eventId":"POLY-665890","marketMetadata":{"marketId":"POLY-2794536-0","eventId":"POLY-665890","title":"Up","subtitle":"Up","description":"Up","status":"no","result":"no","closeTime":1783251900,"openTime":1783165781,"isTeamMarket":true,"sportsMarketType":null,"marketOptions":[{"label":"Up","buyYes":true}]},"eventMetadata":{"eventId":"POLY-665890","title":"Bitcoin Up or Down - July 5, 7:40AM-7:45AM ET","subtitle":"","imageUrl":"https://polymarket-upload.s3.us-east-2.amazonaws.com/BTC+fullsize.png","isLive":false,"tags":["crypto","5m"],"closeTime":1783251900,"beginAt":"1783251600","category":"crypto","subcategory":"btc"}},{"id":2357620,"eventType":"position_lost","signature":"4k6MHfCgGRdaGy6LLoLcpeHerV79JSSq2Ri7HDNsFjrDJ7SbdrhLiJeJBnrfsBi9qjv1zRUBPjdgkBb5tLF2zHfu","slot":"430944395","timestamp":1783252576,"orderPubkey":"","positionPubkey":"HqfC6pTE48h2Ndts5jDjgakYLaZ7NZcoQisTDbTTMMWy","marketId":"POLY-2794522-0","ownerPubkey":"GKa5bz8UVsMz5d4HygNDnQF7HNxDhxCzQTB1FsZ2ZHF","keeperPubkey":"8jhWXEL7xbfVhmmTUsJVfKn7o74jDy3uPARPA9TjsZd2","externalOrderId":"","orderId":"","isBuy":false,"isYes":true,"contracts":"0","contractsMicro":"0","contractsDecimal":"0","filledContracts":"0","filledContractsMicro":"0","filledContractsDecimal":"0","contractsSettled":"26","contractsSettledMicro":"26290000","contractsSettledDecimal":"26.29","maxFillPriceUsd":"0","avgFillPriceUsd":"0","maxBuyPriceUsd":null,"minSellPriceUsd":null,"depositAmountUsd":"0","totalCostUsd":"0","feeUsd":null,"grossProceedsUsd":"0","netProceedsUsd":"0","transferAmountToken":null,"realizedPnl":"-4728983","realizedPnlBeforeFees":"-4728983","payoutAmountUsd":"0","eventId":"POLY-665886","marketMetadata":{"marketId":"POLY-2794522-0","eventId":"POLY-665886","title":"Up","subtitle":"Up","description":"Up","status":"no","result":"no","closeTime":1783251600,"openTime":1783165400,"isTeamMarket":true,"sportsMarketType":null,"marketOptions":[{"label":"Up","buyYes":true}]},"eventMetadata":{"eventId":"POLY-665886","title":"Bitcoin Up or Down - July 5, 7:35AM-7:40AM ET","subtitle":"","imageUrl":"https://polymarket-upload.s3.us-east-2.amazonaws.com/BTC+fullsize.png","isLive":false,"tags":["crypto","5m"],"closeTime":1783251600,"beginAt":"1783251300","category":"crypto","subcategory":"btc"}},{"id":2357573,"eventType":"order_closed","signature":"RuG32rArqWfX1m8QC73ubSKd4uP5MzxfVrrVr1bQ69tGsggx3kY5b2MUJy37W7mwEHQvjEXLWzAEXTxZSpBekuk","slot":"430943841","timestamp":1783252351,"orderPubkey":"6isDftCaYpoY1Bu6818xFi5LmhHnCg2TEBEdpwYU87R9","positionPubkey":"8Qcmr6Gxdq63dpJqePbgAe3upv75XH2FCPngwxK9r3nb","marketId":"POLY-2794564-0","ownerPubkey":"GKa5bz8UVsMz5d4HygNDnQF7HNxDhxCzQTB1FsZ2ZHF","keeperPubkey":"","externalOrderId":"2c238df3bdaa4228b58c3c3a6be5878e","orderId":"0xef65ba02aef0965934ab51b32df5097d4e1317b26d4e1b5226e2658cdfee6c80","isBuy":true,"isYes":true,"contracts":"31","contractsMicro":"31600000","contractsDecimal":"31.6","filledContracts":"0","filledContractsMicro":"0","filledContractsDecimal":"0","contractsSettled":"0","contractsSettledMicro":"0","contractsSettledDecimal":"0","maxFillPriceUsd":"150000","avgFillPriceUsd":"0","maxBuyPriceUsd":"150000","minSellPriceUsd":null,"depositAmountUsd":"0","totalCostUsd":"0","feeUsd":null,"grossProceedsUsd":"0","netProceedsUsd":"0","transferAmountToken":"281116","realizedPnl":null,"realizedPnlBeforeFees":null,"payoutAmountUsd":"0","eventId":"POLY-665914","marketMetadata":{"marketId":"POLY-2794564-0","eventId":"POLY-665914","title":"Up","subtitle":"Up","description":"Up","status":"no","result":"no","closeTime":1783252500,"openTime":1783166277,"isTeamMarket":true,"sportsMarketType":null,"marketOptions":[{"label":"Up","buyYes":true}]},"eventMetadata":{"eventId":"POLY-665914","title":"Bitcoin Up or Down - July 5, 7:50AM-7:55AM ET","subtitle":"","imageUrl":"https://polymarket-upload.s3.us-east-2.amazonaws.com/BTC+fullsize.png","isLive":false,"tags":["crypto","5m"],"closeTime":1783252500,"beginAt":"1783252200","category":"crypto","subcategory":"btc"}},{"id":2357571,"eventType":"order_filled","signature":"3ojbxMGQm5zPeLNmGt1VkM25BaBb2EjaRmbzB8qgfhWhs2uBGimUMwgii4GGoFy2iUjX95hsHEwBinGiqrFWsak4","slot":"430943836","timestamp":1783252349,"orderPubkey":"6isDftCaYpoY1Bu6818xFi5LmhHnCg2TEBEdpwYU87R9","positionPubkey":"8Qcmr6Gxdq63dpJqePbgAe3upv75XH2FCPngwxK9r3nb","marketId":"POLY-2794564-0","ownerPubkey":"GKa5bz8UVsMz5d4HygNDnQF7HNxDhxCzQTB1FsZ2ZHF","keeperPubkey":"8jhWXEL7xbfVhmmTUsJVfKn7o74jDy3uPARPA9TjsZd2","externalOrderId":"2c238df3bdaa4228b58c3c3a6be5878e","orderId":"0xef65ba02aef0965934ab51b32df5097d4e1317b26d4e1b5226e2658cdfee6c80","isBuy":true,"isYes":true,"contracts":"31","contractsMicro":"31600000","contractsDecimal":"31.6","filledContracts":"26","filledContractsMicro":"26230000","filledContractsDecimal":"26.23","contractsSettled":"0","contractsSettledMicro":"0","contractsSettledDecimal":"0","maxFillPriceUsd":"150000","avgFillPriceUsd":"169998","maxBuyPriceUsd":"150000","minSellPriceUsd":null,"depositAmountUsd":"0","totalCostUsd":"4459073","feeUsd":"259120","grossProceedsUsd":"0","netProceedsUsd":"0","transferAmountToken":"281116","realizedPnl":null,"realizedPnlBeforeFees":null,"payoutAmountUsd":"0","eventId":"POLY-665914","marketMetadata":{"marketId":"POLY-2794564-0","eventId":"POLY-665914","title":"Up","subtitle":"Up","description":"Up","status":"no","result":"no","closeTime":1783252500,"openTime":1783166277,"isTeamMarket":true,"sportsMarketType":null,"marketOptions":[{"label":"Up","buyYes":true}]},"eventMetadata":{"eventId":"POLY-665914","title":"Bitcoin Up or Down - July 5, 7:50AM-7:55AM ET","subtitle":"","imageUrl":"https://polymarket-upload.s3.us-east-2.amazonaws.com/BTC+fullsize.png","isLive":false,"tags":["crypto","5m"],"closeTime":1783252500,"beginAt":"1783252200","category":"crypto","subcategory":"btc"}},{"id":2357566,"eventType":"order_created","signature":"26DqrDa1F7nga5AFmxEoLXFrxqfrEWEuRoPovS7EZ5FSnQLfjc1ykHDeLDvJbbeA1pHr7djGmvXUGHsmg21A29nx","slot":"430943819","timestamp":1783252342,"orderPubkey":"6isDftCaYpoY1Bu6818xFi5LmhHnCg2TEBEdpwYU87R9","positionPubkey":"8Qcmr6Gxdq63dpJqePbgAe3upv75XH2FCPngwxK9r3nb","marketId":"POLY-2794564-0","ownerPubkey":"GKa5bz8UVsMz5d4HygNDnQF7HNxDhxCzQTB1FsZ2ZHF","keeperPubkey":"","externalOrderId":"2c238df3bdaa4228b58c3c3a6be5878e","orderId":"","isBuy":true,"isYes":true,"contracts":"31","contractsMicro":"31600000","contractsDecimal":"31.6","filledContracts":"0","filledContractsMicro":"0","filledContractsDecimal":"0","contractsSettled":"0","contractsSettledMicro":"0","contractsSettledDecimal":"0","maxFillPriceUsd":"150000","avgFillPriceUsd":"0","maxBuyPriceUsd":"150000","minSellPriceUsd":null,"depositAmountUsd":"4999309","totalCostUsd":"0","feeUsd":null,"grossProceedsUsd":"0","netProceedsUsd":"0","transferAmountToken":null,"realizedPnl":null,"realizedPnlBeforeFees":null,"payoutAmountUsd":"0","eventId":"POLY-665914","marketMetadata":{"marketId":"POLY-2794564-0","eventId":"POLY-665914","title":"Up","subtitle":"Up","description":"Up","status":"no","result":"no","closeTime":1783252500,"openTime":1783166277,"isTeamMarket":true,"sportsMarketType":null,"marketOptions":[{"label":"Up","buyYes":true}]},"eventMetadata":{"eventId":"POLY-665914","title":"Bitcoin Up or Down - July 5, 7:50AM-7:55AM ET","subtitle":"","imageUrl":"https://polymarket-upload.s3.us-east-2.amazonaws.com/BTC+fullsize.png","isLive":false,"tags":["crypto","5m"],"closeTime":1783252500,"beginAt":"1783252200","category":"crypto","subcategory":"btc"}}],"pagination":{"start":0,"end":9,"total":1347,"hasNext":true}}