{
  "endpoint": "/history?ownerPubkey=GKa5bz8UVsMz5d4HygNDnQF7HNxDhxCzQTB1FsZ2ZHF",
  "url": "https://api.jup.ag/prediction/v1/history?ownerPubkey=GKa5bz8UVsMz5d4HygNDnQF7HNxDhxCzQTB1FsZ2ZHF",
  "status": 200,
  "ok": true,
  "usedApiKey": false,
  "parsedAsJson": true,
  "elapsedMs": 212,
  "fetchedAt": "2026-07-05T11:53:01.367Z",
  "error": null,
  "body": {
    "data": [
      {
        "id": 2357573,
        "eventType": "order_closed",
        "signature": "RuG32rArqWfX1m8QC73ubSKd4uP5MzxfVrrVr1bQ69tGsggx3kY5b2MUJy37W7mwEHQvjEXLWzAEXTxZSpBekuk",
        "slot": "430943841",
        "timestamp": 1783252351,
        "orderPubkey": "6isDftCaYpoY1Bu6818xFi5LmhHnCg2TEBEdpwYU87R9",
        "positionPubkey": "8Qcmr6Gxdq63dpJqePbgAe3upv75XH2FCPngwxK9r3nb",
        "marketId": "POLY-2794564-0",
        "ownerPubkey": "GKa5bz8UVsMz5d4HygNDnQF7HNxDhxCzQTB1FsZ2ZHF",
        "keeperPubkey": "",
        "externalOrderId": "2c238df3bdaa4228b58c3c3a6be5878e",
        "orderId": "0xef65ba02aef0965934ab51b32df5097d4e1317b26d4e1b5226e2658cdfee6c80",
        "isBuy": true,
        "isYes": true,
        "contracts": "31",
        "contractsMicro": "31600000",
        "contractsDecimal": "31.6",
        "filledContracts": "0",
        "filledContractsMicro": "0",
        "filledContractsDecimal": "0",
        "contractsSettled": "0",
        "contractsSettledMicro": "0",
        "contractsSettledDecimal": "0",
        "maxFillPriceUsd": "150000",
        "avgFillPriceUsd": "0",
        "maxBuyPriceUsd": "150000",
        "minSellPriceUsd": null,
        "depositAmountUsd": "0",
        "totalCostUsd": "0",
        "feeUsd": null,
        "grossProceedsUsd": "0",
        "netProceedsUsd": "0",
        "transferAmountToken": "281116",
        "realizedPnl": null,
        "realizedPnlBeforeFees": null,
        "payoutAmountUsd": "0",
        "eventId": "POLY-665914",
        "marketMetadata": {
          "marketId": "POLY-2794564-0",
          "eventId": "POLY-665914",
          "title": "Up",
          "subtitle": "Up",
          "description": "Up",
          "status": "open",
          "result": null,
          "closeTime": 1783252500,
          "openTime": 1783166277,
          "isTeamMarket": true,
          "sportsMarketType": null,
          "marketOptions": [
            {
              "label": "Up",
              "buyYes": true
            }
          ]
        },
        "eventMetadata": {
          "eventId": "POLY-665914",
          "title": "Bitcoin Up or Down - July 5, 7:50AM-7:55AM ET",
          "subtitle": "",
          "imageUrl": "https://polymarket-upload.s3.us-east-2.amazonaws.com/BTC+fullsize.png",
          "isLive": true,
          "tags": [
            "crypto",
            "5m"
          ],
          "closeTime": 1783252500,
          "beginAt": "1783252200",
          "category": "crypto",
          "subcategory": "btc"
        }
      },
      {
        "id": 2357571,
        "eventType": "order_filled",
        "signature": "3ojbxMGQm5zPeLNmGt1VkM25BaBb2EjaRmbzB8qgfhWhs2uBGimUMwgii4GGoFy2iUjX95hsHEwBinGiqrFWsak4",
        "slot": "430943836",
        "timestamp": 1783252349,
        "orderPubkey": "6isDftCaYpoY1Bu6818xFi5LmhHnCg2TEBEdpwYU87R9",
        "positionPubkey": "8Qcmr6Gxdq63dpJqePbgAe3upv75XH2FCPngwxK9r3nb",
        "marketId": "POLY-2794564-0",
        "ownerPubkey": "GKa5bz8UVsMz5d4HygNDnQF7HNxDhxCzQTB1FsZ2ZHF",
        "keeperPubkey": "8jhWXEL7xbfVhmmTUsJVfKn7o74jDy3uPARPA9TjsZd2",
        "externalOrderId": "2c238df3bdaa4228b58c3c3a6be5878e",
        "orderId": "0xef65ba02aef0965934ab51b32df5097d4e1317b26d4e1b5226e2658cdfee6c80",
        "isBuy": true,
        "isYes": true,
        "contracts": "31",
        "contractsMicro": "31600000",
        "contractsDecimal": "31.6",
        "filledContracts": "26",
        "filledContractsMicro": "26230000",
        "filledContractsDecimal": "26.23",
        "contractsSettled": "0",
        "contractsSettledMicro": "0",
        "contractsSettledDecimal": "0",
        "maxFillPriceUsd": "150000",
        "avgFillPriceUsd": "169998",
        "maxBuyPriceUsd": "150000",
        "minSellPriceUsd": null,
        "depositAmountUsd": "0",
        "totalCostUsd": "4459073",
        "feeUsd": "259120",
        "grossProceedsUsd": "0",
        "netProceedsUsd": "0",
        "transferAmountToken": "281116",
        "realizedPnl": null,
        "realizedPnlBeforeFees": null,
        "payoutAmountUsd": "0",
        "eventId": "POLY-665914",
        "marketMetadata": {
          "marketId": "POLY-2794564-0",
          "eventId": "POLY-665914",
          "title": "Up",
          "subtitle": "Up",
          "description": "Up",
          "status": "open",
          "result": null,
          "closeTime": 1783252500,
          "openTime": 1783166277,
          "isTeamMarket": true,
          "sportsMarketType": null,
          "marketOptions": [
            {
              "label": "Up",
              "buyYes": true
            }
          ]
        },
        "eventMetadata": {
          "eventId": "POLY-665914",
          "title": "Bitcoin Up or Down - July 5, 7:50AM-7:55AM ET",
          "subtitle": "",
          "imageUrl": "https://polymarket-upload.s3.us-east-2.amazonaws.com/BTC+fullsize.png",
          "isLive": true,
          "tags": [
            "crypto",
            "5m"
          ],
          "closeTime": 1783252500,
          "beginAt": "1783252200",
          "category": "crypto",
          "subcategory": "btc"
        }
      },
      {
        "id": 2357566,
        "eventType": "order_created",
        "signature": "26DqrDa1F7nga5AFmxEoLXFrxqfrEWEuRoPovS7EZ5FSnQLfjc1ykHDeLDvJbbeA1pHr7djGmvXUGHsmg21A29nx",
        "slot": "430943819",
        "timestamp": 1783252342,
        "orderPubkey": "6isDftCaYpoY1Bu6818xFi5LmhHnCg2TEBEdpwYU87R9",
        "positionPubkey": "8Qcmr6Gxdq63dpJqePbgAe3upv75XH2FCPngwxK9r3nb",
        "marketId": "POLY-2794564-0",
        "ownerPubkey": "GKa5bz8UVsMz5d4HygNDnQF7HNxDhxCzQTB1FsZ2ZHF",
        "keeperPubkey": "",
        "externalOrderId": "2c238df3bdaa4228b58c3c3a6be5878e",
        "orderId": "",
        "isBuy": true,
        "isYes": true,
        "contracts": "31",
        "contractsMicro": "31600000",
        "contractsDecimal": "31.6",
        "filledContracts": "0",
        "filledContractsMicro": "0",
        "filledContractsDecimal": "0",
        "contractsSettled": "0",
        "contractsSettledMicro": "0",
        "contractsSettledDecimal": "0",
        "maxFillPriceUsd": "150000",
        "avgFillPriceUsd": "0",
        "maxBuyPriceUsd": "150000",
        "minSellPriceUsd": null,
        "depositAmountUsd": "4999309",
        "totalCostUsd": "0",
        "feeUsd": null,
        "grossProceedsUsd": "0",
        "netProceedsUsd": "0",
        "transferAmountToken": null,
        "realizedPnl": null,
        "realizedPnlBeforeFees": null,
        "payoutAmountUsd": "0",
        "eventId": "POLY-665914",
        "marketMetadata": {
          "marketId": "POLY-2794564-0",
          "eventId": "POLY-665914",
          "title": "Up",
          "subtitle": "Up",
          "description": "Up",
          "status": "open",
          "result": null,
          "closeTime": 1783252500,
          "openTime": 1783166277,
          "isTeamMarket": true,
          "sportsMarketType": null,
          "marketOptions": [
            {
              "label": "Up",
              "buyYes": true
            }
          ]
        },
        "eventMetadata": {
          "eventId": "POLY-665914",
          "title": "Bitcoin Up or Down - July 5, 7:50AM-7:55AM ET",
          "subtitle": "",
          "imageUrl": "https://polymarket-upload.s3.us-east-2.amazonaws.com/BTC+fullsize.png",
          "isLive": true,
          "tags": [
            "crypto",
            "5m"
          ],
          "closeTime": 1783252500,
          "beginAt": "1783252200",
          "category": "crypto",
          "subcategory": "btc"
        }
      },
      {
        "id": 2357529,
        "eventType": "payout_claimed",
        "signature": "fNhfufAbSYd8Cb4SKH4uPcySuipKJAQcmRmESdttGQqQCqAEyAZwXJ7ionq33oCvY7GZ4YcRGTRfwYxXAzSdPuP",
        "slot": "430943526",
        "timestamp": 1783252223,
        "orderPubkey": "",
        "positionPubkey": "Ec7KbanGNbMi4b8TyUq5GSMms51yfEtoegdTr296X4Ku",
        "marketId": "POLY-2794522-1",
        "ownerPubkey": "GKa5bz8UVsMz5d4HygNDnQF7HNxDhxCzQTB1FsZ2ZHF",
        "keeperPubkey": "GKa5bz8UVsMz5d4HygNDnQF7HNxDhxCzQTB1FsZ2ZHF",
        "externalOrderId": "",
        "orderId": "",
        "isBuy": false,
        "isYes": true,
        "contracts": "0",
        "contractsMicro": "0",
        "contractsDecimal": "0",
        "filledContracts": "0",
        "filledContractsMicro": "0",
        "filledContractsDecimal": "0",
        "contractsSettled": "15",
        "contractsSettledMicro": "15080000",
        "contractsSettledDecimal": "15.08",
        "maxFillPriceUsd": "0",
        "avgFillPriceUsd": "0",
        "maxBuyPriceUsd": null,
        "minSellPriceUsd": null,
        "depositAmountUsd": "0",
        "totalCostUsd": "0",
        "feeUsd": null,
        "grossProceedsUsd": "0",
        "netProceedsUsd": "0",
        "transferAmountToken": "15080000",
        "realizedPnl": "10405200",
        "realizedPnlBeforeFees": "10405200",
        "payoutAmountUsd": "15080000",
        "eventId": "POLY-665886",
        "marketMetadata": {
          "marketId": "POLY-2794522-1",
          "eventId": "POLY-665886",
          "title": "Down",
          "subtitle": "Down",
          "description": "Down",
          "status": "yes",
          "result": "yes",
          "closeTime": 1783251600,
          "openTime": 1783165400,
          "isTeamMarket": true,
          "sportsMarketType": null,
          "marketOptions": [
            {
              "label": "Down",
              "buyYes": true
            }
          ]
        },
        "eventMetadata": {
          "eventId": "POLY-665886",
          "title": "Bitcoin Up or Down - July 5, 7:35AM-7:40AM ET",
          "subtitle": "",
          "imageUrl": "https://polymarket-upload.s3.us-east-2.amazonaws.com/BTC+fullsize.png",
          "isLive": false,
          "tags": [
            "crypto",
            "5m"
          ],
          "closeTime": 1783251600,
          "beginAt": "1783251300",
          "category": "crypto",
          "subcategory": "btc"
        }
      },
      {
        "id": 2357513,
        "eventType": "order_closed",
        "signature": "hNzwoU8hDCAcDWjJAV266VhEtShLHXThLphrzg3jGBuMXszVn8mBZKfGyjAE7p1EGz57YMz4uLsvkHY8J2tTcGH",
        "slot": "430943376",
        "timestamp": 1783252162,
        "orderPubkey": "2o22Zq2gCLqmJz7i8abfMeujCS2VrhRBuJSXy1BcRQUe",
        "positionPubkey": "2Uj6Heb1tiQha8QJyap2GA9x7dPhK9x682P8AtnLKoyc",
        "marketId": "POLY-2794544-0",
        "ownerPubkey": "GKa5bz8UVsMz5d4HygNDnQF7HNxDhxCzQTB1FsZ2ZHF",
        "keeperPubkey": "",
        "externalOrderId": "c7836aae3334411799c359692e1c1330",
        "orderId": "0x0bf57cc156c831c3660a9c06e4e89cfc403f0fbc556af1dc2b02efcd6061d794",
        "isBuy": true,
        "isYes": true,
        "contracts": "59",
        "contractsMicro": "59250000",
        "contractsDecimal": "59.25",
        "filledContracts": "0",
        "filledContractsMicro": "0",
        "filledContractsDecimal": "0",
        "contractsSettled": "0",
        "contractsSettledMicro": "0",
        "contractsSettledDecimal": "0",
        "maxFillPriceUsd": "80000",
        "avgFillPriceUsd": "0",
        "maxBuyPriceUsd": "80000",
        "minSellPriceUsd": null,
        "depositAmountUsd": "0",
        "totalCostUsd": "0",
        "feeUsd": null,
        "grossProceedsUsd": "0",
        "netProceedsUsd": "0",
        "transferAmountToken": "284265",
        "realizedPnl": null,
        "realizedPnlBeforeFees": null,
        "payoutAmountUsd": "0",
        "eventId": "POLY-665895",
        "marketMetadata": {
          "marketId": "POLY-2794544-0",
          "eventId": "POLY-665895",
          "title": "Up",
          "subtitle": "Up",
          "description": "Up",
          "status": "open",
          "result": null,
          "closeTime": 1783252200,
          "openTime": 1783166019,
          "isTeamMarket": true,
          "sportsMarketType": null,
          "marketOptions": [
            {
              "label": "Up",
              "buyYes": true
            }
          ]
        },
        "eventMetadata": {
          "eventId": "POLY-665895",
          "title": "Bitcoin Up or Down - July 5, 7:45AM-7:50AM ET",
          "subtitle": "",
          "imageUrl": "https://polymarket-upload.s3.us-east-2.amazonaws.com/BTC+fullsize.png",
          "isLive": false,
          "tags": [
            "crypto",
            "5m"
          ],
          "closeTime": 1783252200,
          "beginAt": "1783251900",
          "category": "crypto",
          "subcategory": "btc"
        }
      },
      {
        "id": 2357511,
        "eventType": "order_filled",
        "signature": "Jdc8uanb7yoqGHha4HYHT7i6rdxugpoJwv8qUxR8sJ3Lg14b4biqr6qYG99ybXo1f9EA5FffMgKsf2VbDiSQg8t",
        "slot": "430943371",
        "timestamp": 1783252161,
        "orderPubkey": "2o22Zq2gCLqmJz7i8abfMeujCS2VrhRBuJSXy1BcRQUe",
        "positionPubkey": "2Uj6Heb1tiQha8QJyap2GA9x7dPhK9x682P8AtnLKoyc",
        "marketId": "POLY-2794544-0",
        "ownerPubkey": "GKa5bz8UVsMz5d4HygNDnQF7HNxDhxCzQTB1FsZ2ZHF",
        "keeperPubkey": "8jhWXEL7xbfVhmmTUsJVfKn7o74jDy3uPARPA9TjsZd2",
        "externalOrderId": "c7836aae3334411799c359692e1c1330",
        "orderId": "0x0bf57cc156c831c3660a9c06e4e89cfc403f0fbc556af1dc2b02efcd6061d794",
        "isBuy": true,
        "isYes": true,
        "contracts": "59",
        "contractsMicro": "59250000",
        "contractsDecimal": "59.25",
        "filledContracts": "55",
        "filledContractsMicro": "55370000",
        "filledContractsDecimal": "55.37",
        "contractsSettled": "0",
        "contractsSettledMicro": "0",
        "contractsSettledDecimal": "0",
        "maxFillPriceUsd": "80000",
        "avgFillPriceUsd": "80000",
        "maxBuyPriceUsd": "80000",
        "minSellPriceUsd": null,
        "depositAmountUsd": "0",
        "totalCostUsd": "4429600",
        "feeUsd": "285290",
        "grossProceedsUsd": "0",
        "netProceedsUsd": "0",
        "transferAmountToken": "284265",
        "realizedPnl": null,
        "realizedPnlBeforeFees": null,
        "payoutAmountUsd": "0",
        "eventId": "POLY-665895",
        "marketMetadata": {
          "marketId": "POLY-2794544-0",
          "eventId": "POLY-665895",
          "title": "Up",
          "subtitle": "Up",
          "description": "Up",
          "status": "open",
          "result": null,
          "closeTime": 1783252200,
          "openTime": 1783166019,
          "isTeamMarket": true,
          "sportsMarketType": null,
          "marketOptions": [
            {
              "label": "Up",
              "buyYes": true
            }
          ]
        },
        "eventMetadata": {
          "eventId": "POLY-665895",
          "title": "Bitcoin Up or Down - July 5, 7:45AM-7:50AM ET",
          "subtitle": "",
          "imageUrl": "https://polymarket-upload.s3.us-east-2.amazonaws.com/BTC+fullsize.png",
          "isLive": false,
          "tags": [
            "crypto",
            "5m"
          ],
          "closeTime": 1783252200,
          "beginAt": "1783251900",
          "category": "crypto",
          "subcategory": "btc"
        }
      },
      {
        "id": 2357507,
        "eventType": "order_created",
        "signature": "4z3gLmYVxttTMCkUS1H7zhf8Ex7kXtfjj8JtYtttQ6jxW69KgAPdC4rb5WpXeLLZjzWgxnjPhAph3zwiG7EfJruq",
        "slot": "430943359",
        "timestamp": 1783252156,
        "orderPubkey": "2o22Zq2gCLqmJz7i8abfMeujCS2VrhRBuJSXy1BcRQUe",
        "positionPubkey": "2Uj6Heb1tiQha8QJyap2GA9x7dPhK9x682P8AtnLKoyc",
        "marketId": "POLY-2794544-0",
        "ownerPubkey": "GKa5bz8UVsMz5d4HygNDnQF7HNxDhxCzQTB1FsZ2ZHF",
        "keeperPubkey": "",
        "externalOrderId": "c7836aae3334411799c359692e1c1330",
        "orderId": "",
        "isBuy": true,
        "isYes": true,
        "contracts": "59",
        "contractsMicro": "59250000",
        "contractsDecimal": "59.25",
        "filledContracts": "0",
        "filledContractsMicro": "0",
        "filledContractsDecimal": "0",
        "contractsSettled": "0",
        "contractsSettledMicro": "0",
        "contractsSettledDecimal": "0",
        "maxFillPriceUsd": "80000",
        "avgFillPriceUsd": "0",
        "maxBuyPriceUsd": "80000",
        "minSellPriceUsd": null,
        "depositAmountUsd": "4999155",
        "totalCostUsd": "0",
        "feeUsd": null,
        "grossProceedsUsd": "0",
        "netProceedsUsd": "0",
        "transferAmountToken": null,
        "realizedPnl": null,
        "realizedPnlBeforeFees": null,
        "payoutAmountUsd": "0",
        "eventId": "POLY-665895",
        "marketMetadata": {
          "marketId": "POLY-2794544-0",
          "eventId": "POLY-665895",
          "title": "Up",
          "subtitle": "Up",
          "description": "Up",
          "status": "open",
          "result": null,
          "closeTime": 1783252200,
          "openTime": 1783166019,
          "isTeamMarket": true,
          "sportsMarketType": null,
          "marketOptions": [
            {
              "label": "Up",
              "buyYes": true
            }
          ]
        },
        "eventMetadata": {
          "eventId": "POLY-665895",
          "title": "Bitcoin Up or Down - July 5, 7:45AM-7:50AM ET",
          "subtitle": "",
          "imageUrl": "https://polymarket-upload.s3.us-east-2.amazonaws.com/BTC+fullsize.png",
          "isLive": false,
          "tags": [
            "crypto",
            "5m"
          ],
          "closeTime": 1783252200,
          "beginAt": "1783251900",
          "category": "crypto",
          "subcategory": "btc"
        }
      },
      {
        "id": 2357497,
        "eventType": "order_closed",
        "signature": "3faJMMU2ewZ4zpoFdWiKE7ZK33XVDULkGFH2gUSiSXxQaY3x7aEVJqSMF41nMNzjpys6vasMgQSyPx4J9nQDqDoK",
        "slot": "430943246",
        "timestamp": 1783252110,
        "orderPubkey": "F3iCv8pLEqvV28Qb2ES1wx9cprVdw3AE1xVhsBjtVmWh",
        "positionPubkey": "2Uj6Heb1tiQha8QJyap2GA9x7dPhK9x682P8AtnLKoyc",
        "marketId": "POLY-2794544-0",
        "ownerPubkey": "GKa5bz8UVsMz5d4HygNDnQF7HNxDhxCzQTB1FsZ2ZHF",
        "keeperPubkey": "",
        "externalOrderId": "120c64f41a8144ba912fac97c2d51352",
        "orderId": "",
        "isBuy": true,
        "isYes": true,
        "contracts": "16",
        "contractsMicro": "16060000",
        "contractsDecimal": "16.06",
        "filledContracts": "0",
        "filledContractsMicro": "0",
        "filledContractsDecimal": "0",
        "contractsSettled": "0",
        "contractsSettledMicro": "0",
        "contractsSettledDecimal": "0",
        "maxFillPriceUsd": "290000",
        "avgFillPriceUsd": "0",
        "maxBuyPriceUsd": "290000",
        "minSellPriceUsd": null,
        "depositAmountUsd": "0",
        "totalCostUsd": "0",
        "feeUsd": null,
        "grossProceedsUsd": "0",
        "netProceedsUsd": "0",
        "transferAmountToken": "4989701",
        "realizedPnl": null,
        "realizedPnlBeforeFees": null,
        "payoutAmountUsd": "0",
        "eventId": "POLY-665895",
        "marketMetadata": {
          "marketId": "POLY-2794544-0",
          "eventId": "POLY-665895",
          "title": "Up",
          "subtitle": "Up",
          "description": "Up",
          "status": "open",
          "result": null,
          "closeTime": 1783252200,
          "openTime": 1783166019,
          "isTeamMarket": true,
          "sportsMarketType": null,
          "marketOptions": [
            {
              "label": "Up",
              "buyYes": true
            }
          ]
        },
        "eventMetadata": {
          "eventId": "POLY-665895",
          "title": "Bitcoin Up or Down - July 5, 7:45AM-7:50AM ET",
          "subtitle": "",
          "imageUrl": "https://polymarket-upload.s3.us-east-2.amazonaws.com/BTC+fullsize.png",
          "isLive": false,
          "tags": [
            "crypto",
            "5m"
          ],
          "closeTime": 1783252200,
          "beginAt": "1783251900",
          "category": "crypto",
          "subcategory": "btc"
        }
      }
    ],
    "pagination": {
      "start": 0,
      "end": 8,
      "total": 1341,
      "hasNext": true
    }
  }
}